"Benchmark", "Mode", "Threads", "Iterations", "Iteration time", "Mean", "Mean Error (95%)", "Mean Error (99%)", "Unit"
"ee.vait.benchmarking.JmsAsyncBenchMark.send10000000Byte", "thrpt", 1, 10, "1000 ms", 0.010175, 0.0023192518527414057, 0.0023192518527414057, "ops/ms"
"ee.vait.benchmarking.JmsAsyncBenchMark.send1000000Byte", "thrpt", 1, 10, "1000 ms", 0.08241666666666665, 0.052651495979624784, 0.052651495979624784, "ops/ms"
"ee.vait.benchmarking.JmsAsyncBenchMark.send1000Byte", "thrpt", 1, 10, "1000 ms", 2.7015683333333333, 1.3136203818512906, 1.3136203818512906, "ops/ms"
"ee.vait.benchmarking.JmsAsyncBenchMark.send100Byte", "thrpt", 1, 10, "1000 ms", 2.8210683333333337, 1.2892172420747638, 1.2892172420747638, "ops/ms"
"ee.vait.benchmarking.JmsAsyncBenchMark.send10Byte", "thrpt", 1, 10, "1000 ms", 2.9671633333333336, 1.3409487396366033, 1.3409487396366033, "ops/ms"
"ee.vait.benchmarking.JmsAsyncBenchMark.send1Byte", "thrpt", 1, 10, "1000 ms", 2.6386866666666666, 1.7000335163925762, 1.7000335163925762, "ops/ms"
"ee.vait.benchmarking.JmsSyncBenchmark.send10000000Byte", "thrpt", 1, 10, "1000 ms", 0.0018800000000000002, 4.3432087595335426E-4, 4.3432087595335426E-4, "ops/ms"
"ee.vait.benchmarking.JmsSyncBenchmark.send1000000Byte", "thrpt", 1, 10, "1000 ms", 0.006626666666666665, 0.003375074100098478, 0.003375074100098478, "ops/ms"
"ee.vait.benchmarking.JmsSyncBenchmark.send1000Byte", "thrpt", 1, 10, "1000 ms", 0.01918166666666667, 0.003894019829636208, 0.003894019829636208, "ops/ms"
"ee.vait.benchmarking.JmsSyncBenchmark.send100Byte", "thrpt", 1, 10, "1000 ms", 0.020893333333333333, 0.0025990832874175714, 0.0025990832874175714, "ops/ms"
"ee.vait.benchmarking.JmsSyncBenchmark.send10Byte", "thrpt", 1, 10, "1000 ms", 0.01953, 0.005025503979343763, 0.005025503979343763, "ops/ms"
"ee.vait.benchmarking.JmsSyncBenchmark.send1Byte", "thrpt", 1, 10, "1000 ms", 0.019296666666666667, 0.005013781727749136, 0.005013781727749136, "ops/ms"
"ee.vait.benchmarking.JmsAsyncBenchMark.send10000000Byte", "avgt", 1, 10, "1000 ms", 105.96397079065461, 43.35113538295953, 43.35113538295953, "ms/op"
"ee.vait.benchmarking.JmsAsyncBenchMark.send1000000Byte", "avgt", 1, 10, "1000 ms", 308.5128248043095, 1277.0063405993235, 1277.0063405993235, "ms/op"
"ee.vait.benchmarking.JmsAsyncBenchMark.send1000Byte", "avgt", 1, 10, "1000 ms", 0.6245766365129783, 0.9499811195961352, 0.9499811195961352, "ms/op"
"ee.vait.benchmarking.JmsAsyncBenchMark.send100Byte", "avgt", 1, 10, "1000 ms", 0.3960232192600875, 0.23813681663548894, 0.23813681663548894, "ms/op"
"ee.vait.benchmarking.JmsAsyncBenchMark.send10Byte", "avgt", 1, 10, "1000 ms", 0.3607797366202266, 0.1654039889344777, 0.1654039889344777, "ms/op"
"ee.vait.benchmarking.JmsAsyncBenchMark.send1Byte", "avgt", 1, 10, "1000 ms", 0.3592405644973097, 0.13497740258814397, 0.13497740258814397, "ms/op"
"ee.vait.benchmarking.JmsSyncBenchmark.send10000000Byte", "avgt", 1, 10, "1000 ms", 536.6935561833333, 165.4209479254641, 165.4209479254641, "ms/op"
"ee.vait.benchmarking.JmsSyncBenchmark.send1000000Byte", "avgt", 1, 10, "1000 ms", 145.6097125192369, 97.54798062821502, 97.54798062821502, "ms/op"
"ee.vait.benchmarking.JmsSyncBenchmark.send1000Byte", "avgt", 1, 10, "1000 ms", 55.29648443142803, 23.175913712179426, 23.175913712179426, "ms/op"
"ee.vait.benchmarking.JmsSyncBenchmark.send100Byte", "avgt", 1, 10, "1000 ms", 87.51672462318182, 43.78945533488674, 43.78945533488674, "ms/op"
"ee.vait.benchmarking.JmsSyncBenchmark.send10Byte", "avgt", 1, 10, "1000 ms", 51.69948962552477, 8.238343367873192, 8.238343367873192, "ms/op"
"ee.vait.benchmarking.JmsSyncBenchmark.send1Byte", "avgt", 1, 10, "1000 ms", 57.071769669711145, 15.172857364472222, 15.172857364472222, "ms/op"
"ee.vait.benchmarking.JmsAsyncBenchMark.send10000000Byte", "sample", 1, 10, "1000 ms", 1.0513045661538461E8, 3.0702844357504264E7, 3.0702844357504264E7, "ms/op"
"ee.vait.benchmarking.JmsAsyncBenchMark.send1000000Byte", "sample", 1, 10, "1000 ms", 1.0547501854657114E7, 3157335.508516241, 3157335.508516241, "ms/op"
"ee.vait.benchmarking.JmsAsyncBenchMark.send1000Byte", "sample", 1, 10, "1000 ms", 359844.7121184692, 48331.15548024299, 48331.15548024299, "ms/op"
"ee.vait.benchmarking.JmsAsyncBenchMark.send100Byte", "sample", 1, 10, "1000 ms", 365684.47013821226, 78411.20334116479, 78411.20334116479, "ms/op"
"ee.vait.benchmarking.JmsAsyncBenchMark.send10Byte", "sample", 1, 10, "1000 ms", 344882.3567243494, 87062.50974477342, 87062.50974477342, "ms/op"
"ee.vait.benchmarking.JmsAsyncBenchMark.send1Byte", "sample", 1, 10, "1000 ms", 330216.12251531443, 86182.22726298559, 86182.22726298559, "ms/op"
"ee.vait.benchmarking.JmsSyncBenchmark.send10000000Byte", "sample", 1, 10, "1000 ms", 5.4282682368E8, 1.2618064453202139E8, 1.2618064453202139E8, "ms/op"
"ee.vait.benchmarking.JmsSyncBenchmark.send1000000Byte", "sample", 1, 10, "1000 ms", 1.0305754453333333E8, 2.8003409911041234E7, 2.8003409911041234E7, "ms/op"
"ee.vait.benchmarking.JmsSyncBenchmark.send1000Byte", "sample", 1, 10, "1000 ms", 4.2285948282157674E7, 3667414.1753422995, 3667414.1753422995, "ms/op"
"ee.vait.benchmarking.JmsSyncBenchmark.send100Byte", "sample", 1, 10, "1000 ms", 4.053858524302789E7, 2944988.804996385, 2944988.804996385, "ms/op"
"ee.vait.benchmarking.JmsSyncBenchmark.send10Byte", "sample", 1, 10, "1000 ms", 4.192559896774194E7, 4307804.772769849, 4307804.772769849, "ms/op"
"ee.vait.benchmarking.JmsSyncBenchmark.send1Byte", "sample", 1, 10, "1000 ms", 4.1316105253012046E7, 3778094.118190839, 3778094.118190839, "ms/op"
"ee.vait.benchmarking.JmsAsyncBenchMark.send10000000Byte", "ss", 1, 10, "single-shot", 98.02808209999998, 36.132370074750625, 36.132370074750625, "ms"
"ee.vait.benchmarking.JmsAsyncBenchMark.send1000000Byte", "ss", 1, 10, "single-shot", 9.450623, 8.439686194700018, 8.439686194700018, "ms"
"ee.vait.benchmarking.JmsAsyncBenchMark.send1000Byte", "ss", 1, 10, "single-shot", 3.1223463999999996, 11.174561545013443, 11.174561545013443, "ms"
"ee.vait.benchmarking.JmsAsyncBenchMark.send100Byte", "ss", 1, 10, "single-shot", 3.4366985000000008, 12.240092612634761, 12.240092612634761, "ms"
"ee.vait.benchmarking.JmsAsyncBenchMark.send10Byte", "ss", 1, 10, "single-shot", 3.5847663000000005, 12.867356897236768, 12.867356897236768, "ms"
"ee.vait.benchmarking.JmsAsyncBenchMark.send1Byte", "ss", 1, 10, "single-shot", 3.4221243, 12.343836771981106, 12.343836771981106, "ms"
"ee.vait.benchmarking.JmsSyncBenchmark.send10000000Byte", "ss", 1, 10, "single-shot", 312.0448885, 66.15690585751473, 66.15690585751473, "ms"
"ee.vait.benchmarking.JmsSyncBenchmark.send1000000Byte", "ss", 1, 10, "single-shot", 68.0869626, 12.163567419257273, 12.163567419257273, "ms"
"ee.vait.benchmarking.JmsSyncBenchmark.send1000Byte", "ss", 1, 10, "single-shot", 42.865600799999996, 10.020110896300894, 10.020110896300894, "ms"
"ee.vait.benchmarking.JmsSyncBenchmark.send100Byte", "ss", 1, 10, "single-shot", 41.394626, 17.12208533451913, 17.12208533451913, "ms"
"ee.vait.benchmarking.JmsSyncBenchmark.send10Byte", "ss", 1, 10, "single-shot", 57.315541499999995, 76.38019842731964, 76.38019842731964, "ms"
"ee.vait.benchmarking.JmsSyncBenchmark.send1Byte", "ss", 1, 10, "single-shot", 42.044196, 7.54858935509853, 7.54858935509853, "ms"
