"Benchmark", "Mode", "Threads", "Iterations", "Iteration time", "Mean", "Mean Error (95%)", "Mean Error (99%)", "Unit"
"ee.vait.benchmarking.AkkaAsyncBenchmark.send10000000Byte", "thrpt", 1, 10, "1000 ms", 0.032492857142857136, 0.058749216612082024, 0.058749216612082024, "ops/ms"
"ee.vait.benchmarking.AkkaAsyncBenchmark.send1000000Byte", "thrpt", 1, 10, "1000 ms", 0.7649666666666667, 0.946493997703606, 0.946493997703606, "ops/ms"
"ee.vait.benchmarking.AkkaAsyncBenchmark.send1000Byte", "thrpt", 1, 10, "1000 ms", 135.37957, 49.50651574029078, 49.50651574029078, "ops/ms"
"ee.vait.benchmarking.AkkaAsyncBenchmark.send100Byte", "thrpt", 1, 10, "1000 ms", 375.99618, 332.5088423740348, 332.5088423740348, "ops/ms"
"ee.vait.benchmarking.AkkaAsyncBenchmark.send10Byte", "thrpt", 1, 10, "1000 ms", 443.1274200000001, 337.2944874941729, 337.2944874941729, "ops/ms"
"ee.vait.benchmarking.AkkaAsyncBenchmark.send1Byte", "thrpt", 1, 10, "1000 ms", 435.2637266666667, 324.5931203825001, 324.5931203825001, "ops/ms"
"ee.vait.benchmarking.AkkaSyncBenchmark.send10000000Byte", "thrpt", 1, 10, "1000 ms", 0.004531666666666666, 5.904721378693494E-4, 5.904721378693494E-4, "ops/ms"
"ee.vait.benchmarking.AkkaSyncBenchmark.send1000000Byte", "thrpt", 1, 10, "1000 ms", 0.056796666666666676, 0.004110859958608283, 0.004110859958608283, "ops/ms"
"ee.vait.benchmarking.AkkaSyncBenchmark.send1000Byte", "thrpt", 1, 10, "1000 ms", 0.2838016666666667, 0.04557940932921162, 0.04557940932921162, "ops/ms"
"ee.vait.benchmarking.AkkaSyncBenchmark.send100Byte", "thrpt", 1, 10, "1000 ms", 0.29747333333333337, 0.06475472420484205, 0.06475472420484205, "ops/ms"
"ee.vait.benchmarking.AkkaSyncBenchmark.send10Byte", "thrpt", 1, 10, "1000 ms", 0.38425166666666666, 0.09898277566810992, 0.09898277566810992, "ops/ms"
"ee.vait.benchmarking.AkkaSyncBenchmark.send1Byte", "thrpt", 1, 10, "1000 ms", 0.39164166666666667, 0.0973628591386492, 0.0973628591386492, "ops/ms"
"ee.vait.benchmarking.AkkaAsyncBenchmark.send10000000Byte", "avgt", 1, 10, "1000 ms", 85.67554576731116, 237.9864266198487, 237.9864266198487, "ms/op"
"ee.vait.benchmarking.AkkaAsyncBenchmark.send1000000Byte", "avgt", 1, 10, "1000 ms", 14.577684199076483, 44.419992539227806, 44.419992539227806, "ms/op"
"ee.vait.benchmarking.AkkaAsyncBenchmark.send1000Byte", "avgt", 1, 10, "1000 ms", 0.007264973055993805, 0.003036501047493982, 0.003036501047493982, "ms/op"
"ee.vait.benchmarking.AkkaAsyncBenchmark.send100Byte", "avgt", 1, 10, "1000 ms", 0.005001222264698969, 0.006347066816442216, 0.006347066816442216, "ms/op"
"ee.vait.benchmarking.AkkaAsyncBenchmark.send10Byte", "avgt", 1, 10, "1000 ms", 0.004547411441176112, 0.00935622065696924, 0.00935622065696924, "ms/op"
"ee.vait.benchmarking.AkkaAsyncBenchmark.send1Byte", "avgt", 1, 10, "1000 ms", 0.003157756021843846, 0.0028228799661968104, 0.0028228799661968104, "ms/op"
"ee.vait.benchmarking.AkkaSyncBenchmark.send10000000Byte", "avgt", 1, 10, "1000 ms", 213.123478965, 32.942260478414, 32.942260478414, "ms/op"
"ee.vait.benchmarking.AkkaSyncBenchmark.send1000000Byte", "avgt", 1, 10, "1000 ms", 17.354364975416637, 1.5008709635998498, 1.5008709635998498, "ms/op"
"ee.vait.benchmarking.AkkaSyncBenchmark.send1000Byte", "avgt", 1, 10, "1000 ms", 2.565869199711069, 0.6109050596582851, 0.6109050596582851, "ms/op"
"ee.vait.benchmarking.AkkaSyncBenchmark.send100Byte", "avgt", 1, 10, "1000 ms", 2.698631676213267, 0.6898084813950438, 0.6898084813950438, "ms/op"
"ee.vait.benchmarking.AkkaSyncBenchmark.send10Byte", "avgt", 1, 10, "1000 ms", 2.6215063232184668, 0.6314612239875833, 0.6314612239875833, "ms/op"
"ee.vait.benchmarking.AkkaSyncBenchmark.send1Byte", "avgt", 1, 10, "1000 ms", 2.571946331822308, 0.5805545689330304, 0.5805545689330304, "ms/op"
"ee.vait.benchmarking.AkkaAsyncBenchmark.send10000000Byte", "sample", 1, 10, "1000 ms", 1.3351842183235867E7, 7914533.746275648, 7914533.746275648, "ms/op"
"ee.vait.benchmarking.AkkaAsyncBenchmark.send1000000Byte", "sample", 1, 10, "1000 ms", 2644401.331755424, 1974906.7769374915, 1974906.7769374915, "ms/op"
"ee.vait.benchmarking.AkkaAsyncBenchmark.send1000Byte", "sample", 1, 10, "1000 ms", 5470.681325889027, 3881.3943846642783, 3881.3943846642783, "ms/op"
"ee.vait.benchmarking.AkkaAsyncBenchmark.send100Byte", "sample", 1, 10, "1000 ms", 2419.847749263315, 2247.7083005990903, 2247.7083005990903, "ms/op"
"ee.vait.benchmarking.AkkaAsyncBenchmark.send10Byte", "sample", 1, 10, "1000 ms", 2269.2241451329487, 2000.6794115698247, 2000.6794115698247, "ms/op"
"ee.vait.benchmarking.AkkaAsyncBenchmark.send1Byte", "sample", 1, 10, "1000 ms", 1887.9751517519135, 1588.0298538940463, 1588.0298538940463, "ms/op"
"ee.vait.benchmarking.AkkaSyncBenchmark.send10000000Byte", "sample", 1, 10, "1000 ms", 2.198822751372549E8, 1.9671732916925624E7, 1.9671732916925624E7, "ms/op"
"ee.vait.benchmarking.AkkaSyncBenchmark.send1000000Byte", "sample", 1, 10, "1000 ms", 1.7143591317406144E7, 571587.1207312384, 571587.1207312384, "ms/op"
"ee.vait.benchmarking.AkkaSyncBenchmark.send1000Byte", "sample", 1, 10, "1000 ms", 2580769.9612102406, 117569.12543316282, 117569.12543316282, "ms/op"
"ee.vait.benchmarking.AkkaSyncBenchmark.send100Byte", "sample", 1, 10, "1000 ms", 2507882.6666666665, 101647.94161696678, 101647.94161696678, "ms/op"
"ee.vait.benchmarking.AkkaSyncBenchmark.send10Byte", "sample", 1, 10, "1000 ms", 2418740.888457808, 59163.592421926216, 59163.592421926216, "ms/op"
"ee.vait.benchmarking.AkkaSyncBenchmark.send1Byte", "sample", 1, 10, "1000 ms", 2612598.7518324605, 120676.75154173421, 120676.75154173421, "ms/op"
"ee.vait.benchmarking.AkkaAsyncBenchmark.send10000000Byte", "ss", 1, 10, "single-shot", 21.4861852, 51.44837803453252, 51.44837803453252, "ms"
"ee.vait.benchmarking.AkkaAsyncBenchmark.send1000000Byte", "ss", 1, 10, "single-shot", 1.7873007, 4.341145073523528, 4.341145073523528, "ms"
"ee.vait.benchmarking.AkkaAsyncBenchmark.send1000Byte", "ss", 1, 10, "single-shot", 0.1283673, 0.3203768278975953, 0.3203768278975953, "ms"
"ee.vait.benchmarking.AkkaAsyncBenchmark.send100Byte", "ss", 1, 10, "single-shot", 0.1260273, 0.3103459549389017, 0.3103459549389017, "ms"
"ee.vait.benchmarking.AkkaAsyncBenchmark.send10Byte", "ss", 1, 10, "single-shot", 0.16033239999999996, 0.3200443313137524, 0.3200443313137524, "ms"
"ee.vait.benchmarking.AkkaAsyncBenchmark.send1Byte", "ss", 1, 10, "single-shot", 0.1022433, 0.2487712005723362, 0.2487712005723362, "ms"
"ee.vait.benchmarking.AkkaSyncBenchmark.send10000000Byte", "ss", 1, 10, "single-shot", 238.22890710000001, 68.90282184979522, 68.90282184979522, "ms"
"ee.vait.benchmarking.AkkaSyncBenchmark.send1000000Byte", "ss", 1, 10, "single-shot", 18.977847199999996, 5.516021286223486, 5.516021286223486, "ms"
"ee.vait.benchmarking.AkkaSyncBenchmark.send1000Byte", "ss", 1, 10, "single-shot", 4.183909599999999, 4.193807458497847, 4.193807458497847, "ms"
"ee.vait.benchmarking.AkkaSyncBenchmark.send100Byte", "ss", 1, 10, "single-shot", 4.6502965, 4.029515969871502, 4.029515969871502, "ms"
"ee.vait.benchmarking.AkkaSyncBenchmark.send10Byte", "ss", 1, 10, "single-shot", 4.2632152, 4.219646566720769, 4.219646566720769, "ms"
"ee.vait.benchmarking.AkkaSyncBenchmark.send1Byte", "ss", 1, 10, "single-shot", 4.5461182, 3.6244812947945704, 3.6244812947945704, "ms"
